Fetch and parse INMET alerts RSS feed — parse_feed • inmetrss
…
parse_feed()
#> GET request successful. Parsing...
#>  ■■■                                8% |  ETA: 41s
#>  ■■■■■                             15% |  ETA: 36s
#>  ■■■■■■■■                          23% |  ETA: 33s
#>  ■■■■■■■■■■                        29% |  ETA: 30s
#>  ■■■■■■■■■■■                       34% |  ETA: 29s
#>  ■■■■■■■■■■■■■■                    44% |  ETA: 24s
#>  ■■■■■■■■■■■■■■■■                  52% |  ETA: 20s
#>  ■■■■■■■■■■■■■■■■■■■               61% |  ETA: 15s
#>  ■■■■■■■■■■■■■■■■■■■■■■            69% |  ETA: 12s
#>  ■■■■■■■■■■■■■■■■■■■■■■■■          76% |  ETA: 10s
#>  ■■■■■■■■■■■■■■■■■■■■■■■■■■■       85% |  ETA:  6s
#>  ■■■■■■■■■■■■■■■■■■■■■■■■■■■■■     94% |  ETA:  2s
#> # A tibble: 62 × 14
#>    identifier  sent                event responseType urgency severity certainty
#>    <chr>       <dttm>              <chr> <chr>        <chr>   <chr>    <chr>    
#>  1 urn:oid:2.… 2025-09-29 15:11:29 Baix… Prepare      Future  Severe   Likely   
#>  2 urn:oid:2.… 2025-09-28 06:00:00 Baix… Prepare      Future  Moderate Likely   
#>  3 urn:oid:2.… 2025-09-29 14:54:46 Chuv… Prepare      Future  Severe   Likely   
#>  4 urn:oid:2.… 2025-09-29 14:51:42 Chuv… Prepare      Future  Moderate Likely   
#>  5 urn:oid:2.… 2025-09-29 14:47:38 Temp… Prepare      Future  Moderate Likely   
#>  6 urn:oid:2.… 2025-09-29 14:36:20 Temp… Prepare      Future  Moderate Likely   
#>  7 urn:oid:2.… 2025-09-25 06:00:00 Vent… Prepare      Future  Moderate Likely   
#>  8 urn:oid:2.… 2025-09-27 06:00:00 Chuv… Prepare      Future  Moderate Likely   
#>  9 urn:oid:2.… 2025-09-28 15:30:40 Chuv… Prepare      Future  Moderate Likely   
#> 10 urn:oid:2.… 2025-09-26 06:00:00 Temp… Prepare      Future  Moderate Likely   
#> # ℹ 52 more rows
#> # ℹ 7 more variables: onset <dttm>, expires <dttm>, description <chr>,
#> #   instruction <chr>, mun_str <chr>, areaDesc <chr>, polygon <chr>
…
